<svg width="19" height="12" viewBox="0 0 19 12" xmlns="http://www.w3.org/2000/svg">
  <title>
    Combined Shape
  </title>
  <path d="M8.485 10.678L0 2.192 1.414.778l7.778 7.778 7.78-7.778 1.413 1.414-9.193 9.193-.707-.707z" fill="#000" fill-rule="evenodd"/>
</svg>
