<?xml version="1.0" encoding="UTF-8" standalone="no"?>
<svg width="68px" height="68px" viewBox="0 0 68 68" version="1.1" xmlns="http://www.w3.org/2000/svg" xmlns:xlink="http://www.w3.org/1999/xlink">
    <!-- Generator: Sketch 39.1 (31720) - http://www.bohemiancoding.com/sketch -->
    <title>Combined Shape</title>
    <desc>Created with Sketch.</desc>
    <defs></defs>
    <g id="Page-1" stroke="none" stroke-width="1" fill="none" fill-rule="evenodd" opacity="0.910000026">
        <g id="homepage_playbutton" transform="translate(-686.000000, -464.000000)" fill="#FFFFFF">
            <g id="arrow-copy" transform="translate(720.000000, 498.000000) rotate(-90.000000) translate(-720.000000, -498.000000) translate(686.000000, 464.000000)">
                <path d="M34,68 C52.7776815,68 68,52.7776815 68,34 C68,15.2223185 52.7776815,0 34,0 C15.2223185,0 0,15.2223185 0,34 C0,52.7776815 15.2223185,68 34,68 Z M21.76,27.2 L45.56,27.2 L33.66,48.28 L21.76,27.2 Z" id="Combined-Shape"></path>
            </g>
        </g>
    </g>
</svg>