<?xml version="1.0" encoding="UTF-8" standalone="no"?>
<svg width="12px" height="7px" viewBox="0 0 12 7" version="1.1" xmlns="http://www.w3.org/2000/svg" xmlns:xlink="http://www.w3.org/1999/xlink">
    <!-- Generator: Sketch 39.1 (31720) - http://www.bohemiancoding.com/sketch -->
    <title>Rectangle 37 Copy 6</title>
    <desc>Created with Sketch.</desc>
    <defs></defs>
    <g id="Page-1" stroke="none" stroke-width="1" fill="none" fill-rule="evenodd">
        <g id="homepage_CTA" transform="translate(-208.000000, -2117.000000)" fill="#606060">
            <g id="FOOTER" transform="translate(0.000000, 2011.000000)">
                <g id="Group" transform="translate(140.000000, 100.913609)">
                    <polygon id="Rectangle-37-Copy-6" transform="translate(73.656854, 5.656854) rotate(-315.000000) translate(-73.656854, -5.656854) " points="74.2088542 5.10485435 77.6568542 1.65685425 77.6568542 9.65685425 69.6568542 9.65685425"></polygon>
                </g>
            </g>
        </g>
    </g>
</svg>